srv.ItemData.MeleeWeapon,,,,,,,,,,,
Name,sprite,sprite type,Level,Cooldown,Categories,slash,bash,pierce,Salvage,Notes,Unique Buff Builder
Adamantine Barbed Mace,adamantineBarbedMace.png,sword,63,1400,"Barbed Mace, Loot, Adamantine",0,80,20,adamantine crystals,Balance,
Bone Barbed Mace,boneBarbedMace.png,sword,16,1400,"Barbed Mace, Loot, Bone",0,100,0,bone fragments,Balance,
Bronze Barbed Mace,bronzeBarbedMace.png,sword,26,1400,"Barbed Mace, Loot, Bronze",0,100,0,bronze nugget,Balance,
Mythril Barbed Mace,mythrilBarbedMace.png,sword,92,1400,"Barbed Mace, Loot, Mythril",0,80,20,mythril nugget,Image,
Obsidian Barbed Mace,obsidianBarbedMace.png,sword,74,1400,"Barbed Mace, Loot, Obsidian",0,80,20,obsidian,Image,
Orichalcum Barbed Mace,orichalcumBarbedMace.png,sword,98,1400,"Barbed Mace, Loot, Orichalcum",0,80,20,orichalcum shard,Image,
Steel Barbed Mace,steelBarbedMace.png,sword,42,1400,"Barbed Mace, Loot, Steel",0,80,20,steel chunk,Image,
Adamantine Bardiche,adamantineBardiche.png,sword,55,1650,"Bardiche, Loot, Adamantine",80,0,20,adamantine crystals,Balance,
Bone Bardiche,boneBardiche.png,sword,11,1600,"Bardiche, Loot, Bone",80,0,20,bone fragments,Balance,
Bronze Bardiche,bronzeBardiche.png,sword,22,1650,"Bardiche, Loot, Bronze",80,0,20,bronze nugget,Balance,
Mythril Bardiche,mythrilBardiche.png,sword,82,1650,"Bardiche, Loot, Mythril",80,0,20,mythril nugget,Balance,
Obsidian Bardiche,obsidianVoulge.png,sword,70,1650,"Bardiche, Loot, Obsidian",80,0,20,obsidian,Image,
Orichalcum Bardiche,orichalcumVoulge.png,sword,95,1650,"Bardiche, Loot, Orichalcum",80,0,20,orichalcum shard,Image,
Steel Bardiche,steelVoulge.png,sword,34,1650,"Bardiche, Loot, Steel",80,0,20,steel chunk,Image,
Adamantine Baselard,adamantineBaselard.png,sword,55,1350,"Baselard, Loot, Adamantine",0,0,100,adamantine crystals,Balance,
Bone Baselard,boneBaselard.png,sword,11,1300,"Baselard, Loot, Bone",0,0,100,bone fragments,Balance,
Bronze Baselard,bronzeBaselard.png,sword,23,1350,"Baselard, Loot, Bronze",0,0,100,bronze nugget,Balance,
Mythril Baselard,mythrilBaselard.png,sword,82,1350,"Baselard, Loot, Mythril",0,0,100,mythril nugget,Balance,
Obsidian Baselard,obsidianBaselard.png,sword,69,1350,"Baselard, Loot, Obsidian",0,0,100,obsidian,Image,
Orichalcum Baselard,orichalcumBaselard.png,sword,95,1350,"Baselard, Loot, Orichalcum",0,0,100,orichalcum shard,Balance,
Steel Baselard,steelBaselard.png,sword,37,1350,"Baselard, Loot, Steel",0,0,100,steel chunk,Image,
Adamantine Bastard Sword,adamantineBastardSword.png,sword,55,1525,"Bastard Sword, Loot, Adamantine",80,0,20,adamantine crystals,Balance,
Bone Bastard Sword,boneBastardSword.png,sword,11,1525,"Bastard Sword, Loot, Bone",80,0,20,bone fragments,Balance,
Bronze Bastard Sword,bronzeBastardSword.png,sword,22,1525,"Bastard Sword, Loot, Bronze",80,0,20,bronze nugget,Balance,
Mythril Bastard Sword,mythrilBastardSword.png,sword,82,1525,"Bastard Sword, Loot, Mythril",80,0,20,mythril nugget,Balance,
Obsidian Bastard Sword,obsidianBastardSword.png,sword,69,1525,"Bastard Sword, Loot, Obsidian",80,0,20,obsidian,Image,
Orichalcum Bastard Sword,orichalcumBastardSword.png,sword,95,1525,"Bastard Sword, Loot, Orichalcum",80,0,20,orichalcum shard,Balance,
Steel Bastard Sword,steelBastardSword.png,sword,34,1525,"Bastard Sword, Loot, Steel",80,0,20,steel chunk,Image,
Orichalcum Axe,orichalcumAxe.png,sword,95,1400,"Battle Axe, Loot",60,0,40,orichalcum shard,Image,
The Jack Lumber,steelPoleaxe.png,sword,100,1400,"Battle Axe, Loot",60,40,0,,Balance,
The Lumberjack,theLumberjack.png,sword,100,1400,"Battle Axe, Loot",60,40,0,,Balance,
Adamantine Battle Axe,adamantineBattleAxe.png,sword,61,1475,"Battle Axe, Loot, Adamantine",70,0,30,adamantine crystals,Balance,
Adamantine Axe,adamantineAxe.png,sword,58,1400,"Battle Axe, Loot, Adamantine",60,0,40,adamantine crystals,Balance,
Bone Battle Axe,boneBattleAxe.png,sword,14,1350,"Battle Axe, Loot, Bone",70,0,30,bone fragments,Balance,
Bone Axe,boneAxe.png,sword,12,1400,"Battle Axe, Loot, Bone",60,0,40,bone fragments,Balance,
Bronze Battle Axe,bronzeBattleAxe.png,sword,25,1475,"Battle Axe, Loot, Bronze",70,0,30,bronze nugget,Balance,
Bronze Axe,bronzeAxe.png,sword,23,1400,"Battle Axe, Loot, Bronze",60,0,40,bronze nugget,Balance,
Mythril Battle Axe,mythrilBattleAxe.png,sword,88,1475,"Battle Axe, Loot, Mythril",70,0,30,mythril nugget,Balance,
Mythril Axe,mythrilAxe.png,sword,85,1400,"Battle Axe, Loot, Mythril",60,0,40,mythril nugget,Balance,
Obsidian Battle Axe,obsidianBattleaxe.png,sword,74,1475,"Battle Axe, Loot, Obsidian",70,0,30,obsidian,Balance,
Obsidian Axe,obsidianAxe.png,sword,70,1400,"Battle Axe, Loot, Obsidian",60,0,40,obsidian,Image,
Orichalcum Battle Axe,orichalcumBattleaxe.png,sword,97,1475,"Battle Axe, Loot, Orichalcum",70,0,30,orichalcum shard,Balance,
Steel Battle Axe,steelBattleaxe.png,sword,41,1475,"Battle Axe, Loot, Steel",70,0,30,steel chunk,Balance,
Steel Axe,steelAxe.png,sword,36,1400,"Battle Axe, Loot, Steel",60,0,40,steel chunk,Balance,
Wooden Axe,woodAxe.png,sword,3,1400,"Battle Axe, Loot, Wood",100,0,0,wood,Balance,
Adamantine Broadsword,adamantineBroadSword.png,sword,56,1400,"Broadsword, Loot, Adamantine",100,0,0,adamantine crystals,Balance,
Bone Broadsword,boneBroadsword.png,sword,11,1400,"Broadsword, Loot, Bone",100,0,0,bone fragments,Balance,
Bronze Broadsword,bronzeBroadsword.png,sword,22,1400,"Broadsword, Loot, Bronze",100,0,0,bronze nugget,Balance,
Mythril Broadsword,mythrilBroadsword.png,sword,83,1400,"Broadsword, Loot, Mythril",100,0,0,mythril nugget,Balance,
Obsidian Broadsword,obsidianBroadsword.png,sword,70,1400,"Broadsword, Loot, Obsidian",100,0,0,obsidian,Image,
Orichalcum Broadsword,orichalcumBroadsword.png,sword,95,1400,"Broadsword, Loot, Orichalcum",100,0,0,orichalcum shard,Balance,
Steel Broadsword,steelBroadsword.png,sword,36,1400,"Broadsword, Loot, Steel",100,0,0,steel chunk,Balance,
Wooden Broadsword,woodBroadsword.png,sword,2,1400,"Broadsword, Loot, Wood",100,0,0,wood,Balance,
Vridian Cane,vridianCane.png,sword,100,1400,"Cane,  Loot",100,0,0,,Balance,
Ash Cane,ashCane.png,sword,4,1400,"Cane,  Loot, Wood",0,100,0,wood,Balance,
Wooden Cane,woodCane.png,sword,8,1400,"Cane,  Loot, Wood",0,100,0,wood,Balance,
Training Dagger,trainingDagger.png,sword,1,1300,"Dagger, Wood",0,0,100,,Done,
Bone Cinqueda,boneCinqueda.png,sword,8,1300,"Cinqueda, Loot, Bone",60,0,40,bone fragments,Balance,
Bone Dagger,boneDagger.png,sword,10,1350,"Dagger, Loot, Bone",100,0,0,bone fragments,Balance,
Bone Dirk,boneDirk.png,sword,13,1300,"Dirk, Loot, Bone",0,0,100,bone fragments,Balance,
Bone Knife,boneKnife.png,sword,15,1300,"Knife, Loot, Bone",50,0,50,bone fragments,Balance,
Bone Misericorde,boneMisericorde.png,sword,18,1375,"Misericorde, Loot, Bone",0,0,100,bone fragments,Balance,
Bone Stiletto,boneKnife.png,sword,21,1325,"Stiletto, Loot, Bone",0,0,100,bone fragments,Image,
Adamantine Claymore,adamantineClaymoreSword.png,sword,57,1475,"Claymore, Loot, Adamantine",100,0,0,adamantine crystals,Balance,
Bone Claymore,boneClaymoreSword.png,sword,12,1475,"Claymore, Loot, Bone",100,0,0,bone fragments,Balance,
Bronze Claymore,bronzeClaymoreSword.png,sword,23,1475,"Claymore, Loot, Bronze",100,0,0,bronze nugget,Balance,
Mythril Claymore,mythrilClaymore.png,sword,84,1475,"Claymore, Loot, Mythril",100,0,0,mythril nugget,Balance,
Obsidian Claymore,obsidianClaymore.png,sword,71,1475,"Claymore, Loot, Obsidian",100,0,0,obsidian,Image,
Orichalcum Claymore,orichalcumClaymore.png,sword,96,1475,"Claymore, Loot, Orichalcum",100,0,0,orichalcum shard,Balance,
Steel Claymore,steelClaymoresword.png,sword,38,1475,"Claymore, Loot, Steel",100,0,0,steel chunk,Balance,
Wooden Claymore,woodClaymoreSword.png,sword,4,1400,"Claymore, Loot, Wood",100,0,0,wood,Balance,
Bone Club,boneClub.png,sword,11,1400,"Club, Loot, Bone",0,100,0,bone fragments,Balance,
Bone Crusher,boneClub.png,sword,100,1500,"Club, Loot, Bone",0,100,0,,Unique,
Bronze Club,bronzeClub.png,sword,22,1400,"Club, Loot, Bronze",0,100,0,bronze nugget,Balance,
Ash Club,ashClub.png,sword,3,1400,"Club, Loot, Wood",0,100,0,wood,Balance,
Bone Crook,boneCrook.png,sword,4,1400,"Crook, Loot, Bone",0,100,0,bone fragments,Balance,
Ash Crook,ashCrook.png,sword,5,1400,"Crook, Loot, Wood",0,100,0,wood,Balance,
Wooden Crook,woodCrook.png,sword,9,1400,"Crook, Loot, Wood",0,100,0,wood,Balance,
Adamantine Cutlass,adamantineCutlass.png,sword,58,1400,"Cutlass, Loot, Adamantine",100,0,0,adamantine crystals,Balance,
Bone Cutlass,boneCutlass.png,sword,13,1400,"Cutlass, Loot, Bone",100,0,0,bone fragments,Balance,
Bronze Cutlass,bronzeCutlass.png,sword,23,1400,"Cutlass, Loot, Bronze",100,0,0,bronze nugget,Balance,
Mythril Cutlass,mythrilCutlass.png,sword,85,1400,"Cutlass, Loot, Mythril",100,0,0,mythril nugget,Balance,
Obsidian Cutlass,obsidianCutlass.png,sword,72,1400,"Cutlass, Loot, Obsidian",100,0,0,obsidian,Image,
Orichalcum Cutlass,orichalcumCutlass.png,sword,96,1400,"Cutlass, Loot, Orichalcum",100,0,0,orichalcum shard,Balance,
Steel Cutlass,steelCutlass.png,sword,40,1400,"Cutlass, Loot, Steel",100,0,0,steel chunk,Image,
Bronze Cinqueda,bronzeCinqueda.png,sword,25,1375,"Cinqueda, Loot, Bronze",60,0,40,bronze nugget,Balance,
Bronze Dagger,bronzeDagger.png,sword,27,1325,"Dagger, Loot, Bronze",100,0,0,bronze nugget,Balance,
Bronze Dirk,bronzeDirk.png,sword,29,1400,"Dirk, Loot, Bronze",0,0,100,bronze nugget,Balance,
Bronze Knife,bronzeKnife.png,sword,30,1300,"Knife, Loot, Bronze",50,0,50,bronze nugget,Balance,
Bronze Misericorde,bronzeMisericorde.png,sword,31,1200,"Misericorde, Loot, Bronze",0,0,100,bronze nugget,Balance,
Bronze Stiletto,bronzeKnife.png,sword,33,1200,"Stiletto, Loot, Bronze",0,0,100,bronze nugget,Image,
Steel Cinquedea,steelCinqueda.png,sword,40,1375,"Cinqueda, Loot, Steel",60,0,40,steel chunk,Balance,
Steel Dagger,steelDagger.png,sword,43,1325,"Dagger, Loot, Steel",100,0,0,steel chunk,Balance,
Steel Dirk,steelDirk.png,sword,46,1400,"Dirk, Loot, Steel",0,0,100,steel chunk,Image,
Steel Knife,steelDagger.png,sword,49,1300,"Knife, Loot, Steel",50,0,50,steel chunk,Image,
Steel Misericorde,steelMisericorde.png,sword,51,1200,"Misericorde, Loot, Steel",0,0,100,steel chunk,Image,
Steel Stiletto,steelDirk.png,sword,54,1200,"Stiletto, Loot, Steel",0,0,100,steel chunk,Image,
Adamantine Cinqueda,adamantineCinqueda.png,sword,57,1375,"Cinqueda, Loot, Adamantine",60,0,40,adamantine crystals,Balance,
Adamantine Dagger,adamantineDagger.png,sword,59,1325,"Dagger, Loot, Adamantine",100,0,0,adamantine crystals,Balance,
Adamantine Dirk,adamantineDirk.png,sword,61,1400,"Dirk, Loot, Adamantine",0,0,100,adamantine crystals,Balance,
Adamantine Estoc,adamantineEstoc.png,sword,59,1500,"Estoc, Loot, Adamantine",70,0,30,adamantine crystals,Balance,
Bone Estoc,boneEstoc.png,sword,14,1500,"Estoc, Loot, Bone",70,0,30,bone fragments,Balance,
Bronze Estoc,bronzeEstoc.png,sword,24,1500,"Estoc, Loot, Bronze",70,0,30,bronze nugget,Balance,
Mythril Estoc,mythrilEstoc.png,sword,86,1500,"Estoc, Loot, Mythril",70,0,30,mythril nugget,Balance,
Obsidian Estoc,obsidianEstoc.png,sword,73,1500,"Estoc, Loot, Obsidian",70,0,30,obsidian,Image,
Orichalcum Estoc,orichalcumEstoc.png,sword,97,1500,"Estoc, Loot, Orichalcum",70,0,30,orichalcum shard,Balance,
Steel Estoc,steelEstoc.png,sword,42,1500,"Estoc, Loot, Steel",70,0,30,steel chunk,Balance,
Adamantine Falchion,adamantineFalchion.png,sword,60,1350,"Falchion, Loot, Adamantine",100,0,0,adamantine crystals,Balance,
Bone Falchion,boneFalchion.png,sword,15,1350,"Falchion, Loot, Bone",100,0,0,bone fragments,Balance,
Bronze Falchion,bronzeFalchion.png,sword,25,1350,"Falchion, Loot, Bronze",100,0,0,bronze nugget,Balance,
Mythril Falchion,mythrilFalchion.png,sword,87,1350,"Falchion, Loot, Mythril",100,0,0,mythril nugget,Balance,
Obsidian Falchion,obsidianFalchion.png,sword,74,1350,"Falchion, Loot, Obsidian",100,0,0,obsidian,Image,
Orichalcum Falchion,orichalcumFalchion.png,sword,97,1350,"Falchion, Loot, Orichalcum",100,0,0,orichalcum shard,Image,
Steel Falchion,steelFalchion.png,sword,44,1350,"Falchion, Loot, Steel",100,0,0,steel chunk,Image,
Adamantine Flamberge,adamantineFlamberge.png,sword,61,1525,"Flamberge, Loot, Adamantine",100,0,0,adamantine crystals,Balance,
Bone Flamberge,boneFlamberge.png,sword,15,1525,"Flamberge, Loot, Bone",100,0,0,bone fragments,Balance,
Bronze Flamberge,bronzeFlamberge.png,sword,26,1525,"Flamberge, Loot, Bronze",100,0,0,bronze nugget,Balance,
Mythril Flamberge,mythrilFlamberge.png,sword,88,1525,"Flamberge, Loot, Mythril",100,0,0,mythril nugget,Balance,
Obsidian Flamberge,obsidianFlamberge.png,sword,75,1525,"Flamberge, Loot, Obsidian",100,0,0,obsidian,Image,
Orichalcum Flamberge,orichalcumFlamberge.png,sword,98,1525,"Flamberge, Loot, Orichalcum",100,0,0,orichalcum shard,Balance,
Steel Flamberge,steelFlamberge.png,sword,46,1525,"Flamberge, Loot, Steel",100,0,0,steel chunk,Balance,
Adamantine Flanged Mace,adamantineFlangedMace.png,sword,65,1400,"Flanged Mace, Loot, Adamantine",0,100,0,adamantine crystals,Image,
Bone Flanged Mace,boneFlangedMace.png,sword,17,1400,"Flanged Mace, Loot, Bone",0,100,0,bone fragments,Image,
Bronze Flanged Mace,bronzeFlangedMace.png,sword,27,1400,"Flanged Mace, Loot, Bronze",0,100,0,bronze nugget,Balance,
Mythril Flanged Mace,mythrilFlangedMace.png,sword,84,1400,"Flanged Mace, Loot, Mythril",0,100,0,mythril nugget,Image,
Obsidian Flanged Mace,obsidianFlangedMace.png,sword,77,1400,"Flanged Mace, Loot, Obsidian",0,100,0,obsidian,Image,
Orichalcum Flanged Mace,orichalcumFlangedMace.png,sword,98,1400,"Flanged Mace, Loot, Orichalcum",0,100,0,orichalcum shard,Image,
Steel Flanged Mace,steelFlangedMace.png,sword,44,1400,"Flanged Mace, Loot, Steel",0,100,0,steel chunk,Image,
Bone Francisca,boneFrancisca.png,sword,20,1350,"Francisca, Loot, Bone",50,50,0,bone fragments,Balance,
Bronze Francisca,bronzeFrancisca.png,sword,31,1400,"Francisca, Loot, Bronze",100,0,0,bronze nugget,Balance,
Adamantine Glaive,adamantineGlaive.png,sword,57,1600,"Glaive, Loot, Adamantine",80,0,20,adamantine crystals,Balance,
Bone Glaive,boneGlaive.png,sword,12,1650,"Glaive, Loot, Bone",80,0,20,bone fragments,Balance,
Bronze Glaive,bronzeGlaive.png,sword,23,1600,"Glaive, Loot, Bronze",80,0,20,bronze nugget,Balance,
Mythril Glaive,mythrilGlaive.png,sword,83,1600,"Glaive, Loot, Mythril",80,0,20,mythril nugget,Balance,
Obsidian Glaive,obsidianGlaive.png,sword,71,1600,"Glaive, Loot, Obsidian",80,0,20,obsidian,Image,
Orichalcum Glaive,orichalcumGlaive.png,sword,95,1600,"Glaive, Loot, Orichalcum",80,0,20,orichalcum shard,Image,
Steel Glaive,steelGlaive.png,sword,36,1600,"Glaive, Loot, Steel",80,0,20,steel chunk,Balance,
Adamantine Greatsword,adamantineGreatSword.png,sword,62,1650,"Greatsword, Loot, Adamantine",10,0,90,adamantine crystals,Balance,
Bone Greatsword,boneGreatsword.png,sword,16,1650,"Greatsword, Loot, Bone",10,0,90,bone fragments,Balance,
Bronze Greatsword,bronzeGreatsword.png,sword,27,1650,"Greatsword, Loot, Bronze",10,0,90,bronze nugget,Balance,
Mythril Greatsword,mythrilGreatsword.png,sword,89,1650,"Greatsword, Loot, Mythril",10,0,90,mythril nugget,Balance,
Obsidian Greatsword,obsidianClaymore.png,sword,76,1650,"Greatsword, Loot, Obsidian",10,0,90,obsidian,Image,
Orichalcum Greatsword,orichalcumLongsword.png,sword,98,1650,"Greatsword, Loot, Orichalcum",10,0,90,orichalcum shard,Image,
Steel Greatsword,steelClaymoresword.png,sword,48,1650,"Greatsword, Loot, Steel",10,0,90,steel chunk,Image,
Adamantine Halberd,adamantineHalberd.png,sword,59,1650,"Halberd, Loot, Adamantine",10,0,90,adamantine crystals,Balance,
Bronze Halberd,bronzeHalberd.png,sword,24,1650,"Halberd, Loot, Bronze",10,0,90,bronze nugget,Balance,
Mythril Halberd,mythrilHalberd.png,sword,85,1650,"Halberd, Loot, Mythril",10,0,90,mythril nugget,Image,
Obsidian Halberd,obsidianHalberd.png,sword,73,1650,"Halberd, Loot, Obsidian",10,0,90,obsidian,Image,
Orichalcum Halberd,orichalcumHalberd.png,sword,96,1650,"Halberd, Loot, Orichalcum",10,0,90,orichalcum shard,Image,
Steel Halberd,steelHalberd.png,sword,38,1650,"Halberd, Loot, Steel",10,0,90,steel chunk,Image,
Adamantine Hammer,adamantineHammer.png,sword,57,1400,"Hammer, Loot, Adamantine",0,100,0,adamantine crystals,Balance,
Bone Hammer,boneMaul.png,sword,12,1400,"Hammer, Loot, Bone",0,100,0,bone fragments,Image,
Bronze Hammer,bronzeMaul.png,sword,23,1400,"Hammer, Loot, Bronze",0,100,0,bronze nugget,Image,
Mythril Hammer,mythrilHammer.png,sword,86,1400,"Hammer, Loot, Mythril",0,100,0,mythril nugget,Balance,
Obsidian Hammer,obsidianHammer.png,sword,69,1400,"Hammer, Loot, Obsidian",0,100,0,obsidian,Image,
Orichalcum Hammer,orichalcumHammer.png,sword,95,1400,"Hammer, Loot, Orichalcum",0,100,0,orichalcum shard,Balance,
Steel Hammer,steelMaul.png,sword,36,1400,"Hammer, Loot, Steel",0,100,0,steel chunk,Balance,
Wooden Hammer,woodHammer.png,sword,6,1400,"Hammer, Loot, Wood",100,0,0,wood,Balance,
Training Hammer,trainingHammer.png,sword,1,1400,"Hammer, Wood",0,100,0,,Done,
Adamantine Harpoon,adamantineHarpoon.png,sword,60,1400,"Harpoon, Loot, Adamantine",0,0,100,adamantine crystals,Balance,
Bone Harpoon,boneHarpoon.png,sword,14,1400,"Harpoon, Loot, Bone",0,0,100,bone fragments,Balance,
Bronze Harpoon,bronzeHarpoon.png,sword,25,1400,"Harpoon, Loot, Bronze",0,0,100,bronze nugget,Balance,
Mythril Harpoon,mythrilHarpoon.png,sword,87,1400,"Harpoon, Loot, Mythril",0,0,100,mythril nugget,Balance,
Obsidian Harpoon,obsidianHarpoon.png,sword,75,1400,"Harpoon, Loot, Obsidian",0,0,100,obsidian,Image,
Orichalcum Harpoon,orichalcumHarpoon.png,sword,97,1400,"Harpoon, Loot, Orichalcum",0,0,100,orichalcum shard,Balance,
Steel Harpoon,steelHarpoon.png,sword,40,1400,"Harpoon, Loot, Steel",0,0,100,steel chunk,Image,
Adamantine Hatchet,adamantineHatchet.png,sword,64,1350,"Hatchet, Loot, Adamantine",50,0,50,adamantine crystals,Balance,
Bone Hatchet,boneHatchet.png,sword,16,1350,"Hatchet, Loot, Bone",50,0,50,bone fragments,Balance,
Bronze Hatchet,bronzeHatchet.png,sword,27,1350,"Hatchet, Loot, Bronze",50,0,50,bronze nugget,Balance,
Mythril Hatchet,mythrilHatchet.png,sword,91,1350,"Hatchet, Loot, Mythril",50,0,50,mythril nugget,Balance,
Obsidian Hatchet,obsidianHatchet.png,sword,78,1350,"Hatchet, Loot, Obsidian",50,0,50,obsidian,Image,
Orichalcum Hatchet,orichalcumHatchet.png,sword,98,1350,"Hatchet, Loot, Orichalcum",50,0,50,orichalcum shard,Image,
Steel Hatchet,steelHatchet.png,sword,46,1350,"Hatchet, Loot, Steel",50,0,50,steel chunk,Balance,
Wooden Hatchet,woodHatchet.png,sword,6,1400,"Hatchet, Loot, Wood",100,0,0,wood,Balance,
Adamantine Knife,adamantineKnife.png,sword,63,1300,"Knife, Loot, Adamantine",50,0,50,adamantine crystals,Balance,
Adamantine Misericorde,adamantineMisericorde.png,sword,65,1200,"Misericorde, Loot, Adamantine",0,0,100,adamantine crystals,Balance,
Adamantine Stiletto,adamantineKnife.png,sword,67,1200,"Stiletto, Loot, Adamantine",0,0,100,adamantine crystals,Image,
Obsidian Cinqueda,obsidianCinqueda.png,sword,71,1375,"Cinqueda, Loot, Obsidian",60,0,40,obsidian,Image,
Obsidian Dagger,obsidianDagger.png,sword,73,1325,"Dagger, Loot, Obsidian",100,0,0,obsidian,Image,
Obsidian Dirk,obsidianDirk.png,sword,75,1400,"Dirk, Loot, Obsidian",0,0,100,obsidian,Image,
Obsidian Knife,obsidianKnife.png,sword,77,1300,"Knife, Loot, Obsidian",50,0,50,obsidian,Image,
Adamantine Lance,adamantineLance.png,sword,61,1600,"Lance, Loot, Adamantine",0,0,100,adamantine crystals,Balance,
Bone Lance,boneLance.png,sword,15,1600,"Lance, Loot, Bone",0,0,100,bone fragments,Balance,
Bronze Lance,bronzeLance.png,sword,26,1600,"Lance, Loot, Bronze",0,0,100,bronze nugget,Balance,
Mythril Lance,mythrilLance.png,sword,89,1600,"Lance, Loot, Mythril",0,0,100,mythril nugget,Balance,
Obsidian Lance,obsidianLance.png,sword,77,1600,"Lance, Loot, Obsidian",0,0,100,obsidian,Image,
Orichalcum Lance,orichalcumLance.png,sword,97,1600,"Lance, Loot, Orichalcum",0,0,100,orichalcum shard,Balance,
Steel Lance,steelLance.png,sword,42,1600,"Lance, Loot, Steel",0,0,100,steel chunk,Image,
Wooden Lance,woodLance.png,sword,4,1600,"Lance, Loot, Wood",0,0,100,wood,Balance,
Adamantine Longsword,adamantineLongSword.png,sword,63,1475,"Longsword, Loot, Adamantine",80,0,20,adamantine crystals,Image,
Bone Longsword,boneLongsword.png,sword,17,1475,"Longsword, Loot, Bone",80,0,20,bone fragments,Image,
Bronze Longsword,bronzeLongsword.png,sword,28,1475,"Longsword, Loot, Bronze",80,0,20,bronze nugget,Balance,
Mythril Longsword,mythrilLongsword.png,sword,90,1475,"Longsword, Loot, Mythril",80,0,20,mythril nugget,Balance,
Obsidian Longsword,obsidianLongsword.png,sword,77,1475,"Longsword, Loot, Obsidian",80,0,20,obsidian,Image,
Orichalcum Longsword,orichalcumLongsword.png,sword,99,1475,"Longsword, Loot, Orichalcum",80,0,20,orichalcum shard,Image,
Steel Longsword,steelLongsword.png,sword,50,1475,"Longsword, Loot, Steel",80,0,20,steel chunk,Image,
Adamantine Mace,adamantineFlangedMace.png,sword,66,1400,"Mace, Loot, Adamantine",0,100,0,adamantine crystals,Balance,
Bone Mace,boneFlangedMace.png,sword,18,1400,"Mace, Loot, Bone",0,100,0,bone fragments,Balance,
Bronze Mace,bronzeFlangedMace.png,sword,28,1400,"Mace, Loot, Bronze",0,100,0,bronze nugget,Image,
Mythril Mace,mythrilFlangedMace.png,sword,93,1400,"Mace, Loot, Mythril",0,100,0,mythril nugget,Balance,
Obsidian Mace,obsidianFlangedMace.png,sword,78,1400,"Mace, Loot, Obsidian",0,100,0,obsidian,Image,
Orichalcum Mace,orichalcumFlangedMace.png,sword,99,1400,"Mace, Loot, Orichalcum",0,100,0,orichalcum shard,Balance,
Steel Mace,steelBarbedMace.png,sword,46,1400,"Mace, Loot, Steel",0,100,0,steel chunk,Image,
Ash Mace,ashMace.png,sword,9,1400,"Mace, Loot, Wood",0,100,0,wood,Balance,
Wooden Mace,woodMace.png,sword,10,1400,"Mace, Loot, Wood",100,0,0,wood,Balance,
Adamantine Maul,adamantineFlangedMace.png,sword,59,1350,"Maul, Loot, Adamantine",0,100,0,adamantine crystals,Image,
Bone Maul,boneMaul.png,sword,14,1400,"Maul, Loot, Bone",0,100,0,bone fragments,Balance,
Bronze Maul,bronzeMaul.png,sword,24,1350,"Maul, Loot, Bronze",0,100,0,bronze nugget,Balance,
Mythril Maul,mythrilHammer.png,sword,88,1350,"Maul, Loot, Mythril",0,100,0,mythril nugget,Image,
Obsidian Maul,obsidianMaul.png,sword,71,1350,"Maul, Loot, Obsidian",0,100,0,obsidian,Image,
Orichalcum Maul,orichalcumBarbedMace.png,sword,96,1350,"Maul, Loot, Orichalcum",0,100,0,orichalcum shard,Image,
Steel Maul,steelMaul.png,sword,38,1350,"Maul, Loot, Steel",0,100,0,steel chunk,Balance,
Wooden Maul,woodMaul.png,sword,7,1400,"Maul, Loot, Wood",100,0,0,wood,Balance,
Obsidian Misericorde,obsidianMisericorde.png,sword,79,1200,"Misericorde, Loot, Obsidian",0,0,100,obsidian,Image,
Obsidian Stiletto,obsidianDirk.png,sword,81,1200,"Stiletto, Loot, Obsidian",0,0,100,obsidian,Image,
Mythril Cinqueda,mythrilCinqueda.png,sword,84,1375,"Cinqueda, Loot, Mythril",60,0,40,mythril nugget,Balance,
Mythril Dagger,mythrilDagger.png,sword,86,1325,"Dagger, Loot, Mythril",100,0,0,mythril nugget,Balance,
Mythril Dirk,mythrilDirk.png,sword,88,1400,"Dirk, Loot, Mythril",0,0,100,mythril nugget,Balance,
Mythril Knife,mythrilDagger.png,sword,90,1300,"Knife, Loot, Mythril",50,0,50,mythril nugget,Image,
Mythril Misericorde,mythrilMisericorde.png,sword,92,1200,"Misericorde, Loot, Mythril",0,0,100,mythril nugget,Balance,
Adamantine Morningstar,adamantineBarbedMace.png,sword,67,1400,"Morningstar, Loot, Adamantine",0,70,30,adamantine crystals,Image,
Bone Morningstar,boneBarbedMace.png,sword,19,1400,"Morningstar, Loot, Bone",0,70,30,bone fragments,Image,
Bronze Morningstar,bronzeBarbedMace.png,sword,30,1400,"Morningstar, Loot, Bronze",0,70,30,bronze nugget,Image,
Mythril Morningstar,mythrilFlangedMace.png,sword,94,1400,"Morningstar, Loot, Mythril",0,70,30,mythril nugget,Image,
Obsidian Morningstar,obsidianBarbedMace.png,sword,80,1400,"Morningstar, Loot, Obsidian",0,70,30,obsidian,Image,
Orichalcum Morningstar,orichalcumFlangedMace.png,sword,100,1400,"Morningstar, Loot, Orichalcum",0,70,30,orichalcum shard,Image,
Steel Morningstar,steelFlangedMace.png,sword,50,1400,"Morningstar, Loot, Steel",0,70,30,steel chunk,Image,
Adamantine Partisan,adamantinePartisan.png,sword,62,1600,"Partisan, Loot, Adamantine",0,0,100,adamantine crystals,Balance,
Bone Partisan,bonePartisan.png,sword,16,1600,"Partisan, Loot, Bone",0,0,100,bone fragments,Balance,
Bronze Partisan,bronzePartisan.png,sword,27,1600,"Partisan, Loot, Bronze",0,0,100,bronze nugget,Balance,
Mythril Partisan,mythrilPartisan.png,sword,91,1600,"Partisan, Loot, Mythril",0,0,100,mythril nugget,Balance,
Obsidian Partisan,obsidianPartisan.png,sword,78,1600,"Partisan, Loot, Obsidian",0,0,100,obsidian,Image,
Orichalcum Partisan,orichalcumPartisan.png,sword,98,1600,"Partisan, Loot, Orichalcum",0,0,100,orichalcum shard,Balance,
Steel Partisan,steelPartisan.png,sword,44,1600,"Partisan, Loot, Steel",0,0,100,steel chunk,Balance,
Adamantine Pike,adamantineSpear.png,sword,63,1550,"Pike, Loot, Adamantine",0,0,100,adamantine crystals,Image,
Bone Pike,boneTrident.png,sword,17,1650,"Pike, Loot, Bone",0,0,100,bone fragments,Image,
Bronze Pike,bronzePike.png,sword,28,1550,"Pike, Loot, Bronze",0,0,100,bronze nugget,Balance,
Mythril Pike,mythrilSpear2.png,sword,92,1550,"Pike, Loot, Mythril",0,0,100,mythril nugget,Image,
Obsidian Pike,obsidianSpear.png,sword,79,1550,"Pike, Loot, Obsidian",0,0,100,obsidian,Image,
Orichalcum Pike,orichalcumSpear.png,sword,98,1550,"Pike, Loot, Orichalcum",0,0,100,orichalcum shard,Image,
Steel Pike,steelPike.png,sword,46,1550,"Pike, Loot, Steel",0,0,100,steel chunk,Image,
Adamantine Pollaxe,adamantinePoleaxe.png,sword,67,1500,"Pollaxe, Loot, Adamantine",80,0,20,adamantine crystals,Balance,
Bone Poleaxe,bonePoleaxe.png,sword,18,1400,"Pollaxe, Loot, Bone",80,0,20,bone fragments,Balance,
Bronze Pollaxe,bronzePoleaxe.png,sword,29,1500,"Pollaxe, Loot, Bronze",80,0,20,bronze nugget,Balance,
Mythril Pollaxe,mythrilPoleaxe.png,sword,94,1500,"Pollaxe, Loot, Mythril",80,0,20,mythril nugget,Balance,
Obsidian Pollaxe,obsidianPoleaxe.png,sword,82,1500,"Pollaxe, Loot, Obsidian",80,0,20,obsidian,Image,
Orichalcum Pollaxe,orichalcumPoleaxe.png,sword,100,1500,"Pollaxe, Loot, Orichalcum",80,0,20,orichalcum shard,Balance,
Steel Pollaxe,steelPoleaxe.png,sword,51,1500,"Pollaxe, Loot, Steel",80,0,20,steel chunk,Balance,
Wooden Poleaxe,woodPoleaxe.png,sword,9,1400,"Pollaxe, Loot, Wood",100,0,0,wood,Balance,
Adamantine Saber,adamantineSaber.png,sword,64,1400,"Saber, Loot, Adamantine",100,0,0,adamantine crystals,Image,
Bone Saber,boneSaber.png,sword,18,1400,"Saber, Loot, Bone",100,0,0,bone fragments,Image,
Bronze Saber,bronzeSaber.png,sword,29,1400,"Saber, Loot, Bronze",100,0,0,bronze nugget,Image,
Mythril Saber,mythrilSaber.png,sword,91,1400,"Saber, Loot, Mythril",100,0,0,mythril nugget,Image,
Obsidian Saber,obsidianSaber.png,sword,78,1400,"Saber, Loot, Obsidian",100,0,0,obsidian,Image,
Orichalcum Saber,orichalcumSaber.png,sword,100,1400,"Saber, Loot, Orichalcum",100,0,0,orichalcum shard,Image,
Steel Saber,steelSaber.png,sword,50,1400,"Saber, Loot, Steel",100,0,0,steel chunk,Image,
Crystalline Scepter,crystallineScepter.png,sword,100,1400,"Sceptre, Loot",100,0,0,,Balance,
Bone Sceptre,boneSceptre.png,sword,6,1475,"Sceptre, Loot, Bone",0,100,0,bone fragments,Balance,
Ash Sceptre,ashSceptre.png,sword,6,1400,"Sceptre, Loot, Wood",0,100,0,wood,Balance,
Adamantine Scimitar,adamantineScimitar.png,sword,65,1400,"Scimitar, Loot, Adamantine",100,0,0,adamantine crystals,Balance,
Bone Scimitar,boneScimitar.png,sword,19,1400,"Scimitar, Loot, Bone",100,0,0,bone fragments,Balance,
Bronze Scimitar,bronzeScimitar.png,sword,30,1400,"Scimitar, Loot, Bronze",100,0,0,bronze nugget,Balance,
Mythril Scimitar,mythrilScimitar.png,sword,92,1400,"Scimitar, Loot, Mythril",100,0,0,mythril nugget,Balance,
Obsidian Scimitar,obsidianSaber.png,sword,79,1400,"Scimitar, Loot, Obsidian",100,0,0,obsidian,Image,
Orichalcum Scimitar,orichalcumScimitar.png,sword,100,1400,"Scimitar, Loot, Orichalcum",100,0,0,orichalcum shard,Balance,
Steel Scimitar,steelScimitar.png,sword,52,1400,"Scimitar, Loot, Steel",100,0,0,steel chunk,Image,
Adamantine Scythe,adamantineScythe.png,sword,66,1400,"Scythe, Loot, Adamantine",100,0,0,adamantine crystals,Balance,
Mythril Scythe,mythrilScythe.png,sword,90,1400,"Scythe, Loot, Mythril",100,0,0,mythril nugget,Balance,
Obsidian Scythe,obsidianScythe.png,sword,79,1400,"Scythe, Loot, Obsidian",100,0,0,obsidian,Iamge,
Orichalcum Scythe,orichalcumScythe.png,sword,99,1550,"Scythe, Loot, Orichalcum",0,0,100,orichalcum shard,Balance,
Steel Scythe,steelScythe.png,sword,48,1550,"Scythe, Loot, Steel",0,0,100,steel chunk,Balance,
Adamantine Shortsword,adamantineShortSword.png,sword,67,1400,"Shortsword, Loot, Adamantine",100,0,0,adamantine crystals,Balance,
Bone Shortsword,boneShortsword.png,sword,20,1400,"Shortsword, Loot, Bone",100,0,0,bone fragments,Balance,
Bronze Shortsword,bronzeShortsword.png,sword,31,1400,"Shortsword, Loot, Bronze",100,0,0,bronze nugget,Balance,
Mythril Shortsword,mythrilShortsword.png,sword,93,1400,"Shortsword, Loot, Mythril",100,0,0,mythril nugget,Balance,
Obsidian Shortsword,obsidianShortSword.png,sword,80,1400,"Shortsword, Loot, Obsidian",100,0,0,obsidian,Image,
Orichalcum Shortsword,orichalcumShortSword.png,sword,100,1400,"Shortsword, Loot, Orichalcum",100,0,0,orichalcum shard,Balance,
Steel Shortsword,steelShortSword.png,sword,53,1400,"Shortsword, Loot, Steel",100,0,0,steel chunk,Balance,
Wooden Shortsword,woodShortSword.png,sword,6,1400,"Shortsword, Loot, Wood",100,0,0,wood,Balance,
Adamantine Spear,adamantineSpear.png,sword,64,1600,"Spear, Loot, Adamantine",0,0,100,adamantine crystals,Balance,
Bone Spear,boneSpear.png,sword,18,1400,"Spear, Loot, Bone",0,0,100,bone fragments,Balance,
Bronze Spear,bronzeSpear.png,sword,29,1600,"Spear, Loot, Bronze",0,0,100,bronze nugget,Balance,
Mythril Spear,mythrilSpear.png,sword,93,1600,"Spear, Loot, Mythril",0,0,100,mythril nugget,Balance,
Obsidian Spear,obsidianSpear.png,sword,80,1600,"Spear, Loot, Obsidian",0,0,100,obsidian,Image,
Orichalcum Spear,orichalcumSpear.png,sword,100,1600,"Spear, Loot, Orichalcum",0,0,100,orichalcum shard,Balance,
Steel Spear,steelSpear.png,sword,50,1600,"Spear, Loot, Steel",0,0,100,steel chunk,Balance,
Wooden Spear,woodSpear.png,sword,6,1400,"Spear, Loot, Wood",100,0,0,wood,Balance,
Adamantine Spiked Mace,adamantineBarbedMace.png,sword,68,1400,"Spiked Mace, Loot, Adamantine",0,80,20,adamantine crystals,Image,
Bone Spiked Mace,boneBarbedMace.png,sword,20,1400,"Spiked Mace, Loot, Bone",0,80,20,bone fragments,Image,
Bronze Spiked Mace,bronzeBarbedMace.png,sword,32,1400,"Spiked Mace, Loot, Bronze",0,80,20,bronze nugget,Balance,
Mythril Spiked Mace,mythrilBarbedMace.png,sword,95,1400,"Spiked Mace, Loot, Mythril",0,80,20,mythril nugget,Balance,
Obsidian Spiked Mace,obsidianBarbedMace.png,sword,82,1400,"Spiked Mace, Loot, Obsidian",0,80,20,obsidian,Image,
Orichalcum Spiked Mace,orichalcumBarbedMace.png,sword,100,1400,"Spiked Mace, Loot, Orichalcum",0,80,20,orichalcum shard,Image,
Steel Spiked Mace,steelBarbedMace.png,sword,53,1400,"Spiked Mace, Loot, Steel",0,80,20,steel chunk,Image,
The Oculus,oculusStaff.png,sword,100,1475,"Staff, Loot",100,0,0,,Balance,
Opal Staff,opalStaff.png,sword,100,1400,"Staff, Loot",100,0,0,,Balance,
Sun Staff,wizardstaffdark.png,sword,100,1400,"Staff, Loot",100,0,0,,Balance,
Adamantine Staff,adamantineStaff.png,sword,60,1400,"Staff, Loot, Adamantine",0,100,0,adamantine crystals,Balance,
Bone Cane,boneCane.png,sword,2,1400,"Staff, Loot, Bone",0,100,0,bone fragments,Balance,
Bone Staff,boneSceptre.png,sword,8,1400,"Staff, Loot, Bone",0,100,0,bone fragments,Balance,
Orichalcum Staff,orichalcumStaff.png,sword,100,1400,"Staff, Loot, Orichalcum",0,100,0,orichalcum shard,Balance,
Ash Staff,ashStaff.png,sword,7,1400,"Staff, Loot, Wood",0,100,0,wood,Balance,
Wooden Staff,woodStaff.png,sword,10,1400,"Staff, Loot, Wood",0,100,0,wood,Balance,
Training Staff,wizardstaffwood.png,sword,1,1400,"Staff, Wood",0,100,0,,Done,
Mythril Stiletto,mythrilDirk.png,sword,94,1200,"Stiletto, Loot, Mythril",0,0,100,mythril nugget,Image,
Orichalcum Cinquedea,orichalcumCinqueda.png,sword,95,1375,"Cinqueda, Loot, Orichalcum",60,0,40,orichalcum shard,Balance,
Orichalcum Dagger,orichalcumDagger.png,sword,96,1325,"Dagger, Loot, Orichalcum",100,0,0,orichalcum shard,Balance,
Orichalcum Dirk,orichalcumDirk.png,sword,97,1400,"Dirk, Loot, Orichalcum",0,0,100,orichalcum shard,Balance,
Orichalcum Knife,orichalcumDagger.png,sword,98,1300,"Knife, Loot, Orichalcum",50,0,50,orichalcum shard,Image,
Orichalcum Misericorde,orichalcumMisericorde.png,sword,99,1200,"Misericorde, Loot, Orichalcum",0,0,100,orichalcum shard,Image,
Orichalcum Stiletto,orichalcumDirk.png,sword,100,1200,"Stiletto, Loot, Orichalcum",0,0,100,orichalcum shard,Image,
Wooden Sword,woodBasicSword.png,sword,8,1400,"Sword, Loot, Wood",100,0,0,wood,Balance,
Training Sword,trainingSword.png,sword,1,1400,"Sword, Wood",100,0,0,,Done,
Mythril Gungnir,mythrilGungnir.png,sword,86,1600,"Trident, Loot",10,0,90,mythril nugget,Balance,
Obsidian Gungnir,obsidianGungnir.png,sword,70,1600,"Trident, Loot",80,0,20,obsidian,Balance,
Orichalcum Gungnir,orichalcumGungnir.png,sword,94,1600,"Trident, Loot",80,0,20,orichalcum shard,Balnace,
Poseidons Gungnir,poseidonGungnir.png,sword,100,1650,"Trident, Loot",90,0,10,orichalcum shard,Balance,
Adamantine Trident,adamantineTrident.png,sword,66,1575,"Trident, Loot, Adamantine",0,0,100,adamantine crystals,Balance,
Bone Trident,boneTrident.png,sword,19,1600,"Trident, Loot, Bone",0,0,100,bone fragments,Balance,
Bronze Trident,bronzeTrident.png,sword,30,1575,"Trident, Loot, Bronze",0,0,100,bronze nugget,Balance,
Mythril Trident,mythrilTrident.png,sword,94,1575,"Trident, Loot, Mythril",0,0,100,mythril nugget,Balance,
Obsidian Trident,obsidianTrident.png,sword,81,1575,"Trident, Loot, Obsidian",0,0,100,obsidian,Image,
Orichalcum Trident,orichalcumTrident.png,sword,100,1575,"Trident, Loot, Orichalcum",0,0,100,orichalcum shard,Balance,
Steel Trident,steelTrident.png,sword,52,1575,"Trident, Loot, Steel",0,0,100,steel chunk,Balance,
Wooden Trident,woodTrident.png,sword,8,1400,"Trident, Loot, Wood",100,0,0,wood,Balance,
Ruby Dagger,rubyDagger.png,sword,100,1325,"Unique Weapon, Dagger, Loot",100,0,0,,Balance,
Scramasax,scramasax.png,sword,100,1400,"Unique Weapon, Dagger, Loot",0,0,100,,Unique,
Bone Mattock,boneMattock.png,sword,13,1400,"Unique Weapon, Mace, Loot, Bone",0,0,100,bone fragments,Balance,
Giant's Jawbone,giantsJawbone.png,sword,100,1400,"Unique Weapon, Maul, Loot",0,100,0,,Balance,
Post Pounder,postPounder.png,sword,100,1400,"Unique Weapon, Maul, Loot",0,100,0,,Unique,
Crescent Glaive,crescentGlaive.png,sword,100,1600,"Unique Weapon, Partisan, Loot",20,0,80,,Unique,
Leaf Pike,leafPike.png,sword,100,1550,"Unique Weapon, Pike, Loot",0,0,100,,Balance,
Gae Bolg,gae_bolg.png,sword,100,1600,"Unique Weapon, Spear, Loot",0,0,100,,Unique,
The Forlorn,daggerruby.png,sword,100,1525,"Unique Weapon, Sword, Loot",80,0,20,,Balance,
Excalibur,excalibur.png,sword,100,1475,"Unique Weapon, Sword, Loot",80,0,20,,Unique,
Adamantine Voulge,adamantineVoulge.png,sword,68,1600,"Voulge, Loot, Adamantine",60,0,40,adamantine crystals,Balance,
Bone Voulge,boneVoulge.png,sword,20,1650,"Voulge, Loot, Bone",60,0,40,bone fragments,Balance,
Bronze Voulge,bronzeVoulge.png,sword,32,1600,"Voulge, Loot, Bronze",60,0,40,bronze nugget,Balance,
Mythril Voulge,mythrilVoulge.png,sword,95,1600,"Voulge, Loot, Mythril",60,0,40,mythril nugget,Balance,
Obsidian Voulge,obsidianVoulge.png,sword,82,1600,"Voulge, Loot, Obsidian",60,0,40,obsidian,Image,
Orichalcum Voulge,orichalcumVoulge.png,sword,100,1600,"Voulge, Loot, Orichalcum",60,0,40,orichalcum shard,Image,
Steel Voulge,steelVoulge.png,sword,54,1600,"Voulge, Loot, Steel",60,0,40,steel chunk,Balance,
Adamantine Warhammer,adamantineWarhammer.png,sword,61,1500,"Warhammer, Loot, Adamantine",0,100,0,adamantine crystals,Balance,
Bone Warhammer,boneWarhammer.png,sword,15,1400,"Warhammer, Loot, Bone",0,100,0,bone fragments,Balance,
Bronze Warhammer,bronzeWarhammer.png,sword,25,1500,"Warhammer, Loot, Bronze",0,100,0,bronze nugget,Balance,
Obsidian Warhammer,obsidianWarhammer.png,sword,72,1500,"Warhammer, Loot, Obsidian",0,100,0,obsidian,Image,
Orichalcum Warhammer,orichalcumWarhammer.png,sword,97,1500,"Warhammer, Loot, Orichalcum",0,100,0,orichalcum shard,Image,
Steel Warhammer,steelWarhammer.png,sword,40,1500,"Warhammer, Loot, Steel",0,100,0,steel chunk,Image,
Adamantine Zweihander,adamantineZweihander.png,sword,68,1675,"Zweihander, Loot, Adamantine",100,0,0,adamantine crystals,Balance,
Bone Zweihander,boneZweihander.png,sword,21,1675,"Zweihander, Loot, Bone",100,0,0,bone fragments,Balance,
Bronze Zweihander,bronzeZweihander.png,sword,33,1675,"Zweihander, Loot, Bronze",100,0,0,bronze nugget,Balance,
Mythril Zweihander,mythrilZweihander.png,sword,94,1675,"Zweihander, Loot, Mythril",100,0,0,mythril nugget,Balance,
Obsidian Zweihander,obsidianZweihander.png,sword,81,1675,"Zweihander, Loot, Obsidian",100,0,0,obsidian,Image,
Orichalcum Zweihander,orichalcumZweihander.png,sword,100,1675,"Zweihander, Loot, Orichalcum",100,0,0,orichalcum shard,Balance,
Steel Zweihander,steelZweihander.png,sword,54,1675,"Zweihander, Loot, Steel",100,0,0,steel chunk,Balance,
Crocea Mors,obsidianCroceaMorsFancy.png,sword,25,1400,"Unique Weapon, Sword, Loot, Steel",100,0,0,steel chunk,Balance,
Chaos Sword,uniqueChaosSword.png,sword,35,1400,"Unique Weapon, Sword, Loot, Steel",100,0,0,steel chunk,Balance,unique_chaos_sword
Blaze Sword,uniqueFlameSword.png,sword,25,1400,"Unique Weapon, Sword, Loot, Steel",100,0,0,steel chunk,Balance,unique_blaze_sword
Blue Slime Slayer,uniqueSlimeSlayer.png,sword,17,1400,"Unique Weapon, Sword, Loot, Steel",100,0,0,steel chunk,Balance,unique_slime_sword
Red Slime Slayer,uniqueSlimeSlayer2.png,sword,17,1400,"Unique Weapon, Sword, Loot, Steel",100,0,0,steel chunk,Balance,unique_slime_sword
,,,,,,,,,,,
,,,,,,,,,,,
,,,,,,,,,,,
srv.ItemData.MeleeWeapon,,,,,,,,,,,
Name,sprite,sprite type,Level,Cooldown,Categories,slash,bash,pierce,Salvage,Projectile,Notes
Adamantine Crossbow,adamantineCrossbow.png,bow,55,1900,"Crossbow, Adamantine",0,10,90,adamantine crystals,data/sprite/weapons/bolt.png,Image
Ash Crossbow,ashCrossbow.png,bow,7,1900,"Crossbow, Wood",0,0,100,ash wood,data/sprite/weapons/bolt.png,Image
Ash Longbow,ashLongbow.png,bow,27,1800,"Longbow, Wood",0,0,100,ash wood,data/sprite/weapons/arrow.png,Image
Ash Shortbow,ashShortBow.png,bow,27,1750,"Shortbow, Wood",0,0,100,ash wood,data/sprite/weapons/arrow.png,Balance
Beech Longbow,birchLongbow.png,bow,7,1800,"Longbow, Wood",0,0,100,beech wood,data/sprite/weapons/arrow.png,Image
Beech Shortbow,beechShortbow.png,bow,7,1750,"Shortbow, Wood",0,0,100,beech wood,data/sprite/weapons/arrow.png,Balance
Birch Longbow,birchLongbow.png,bow,14,1800,"Longbow, Wood",0,0,100,birch wood,data/sprite/weapons/arrow.png,Balance
Birch Shortbow,birchShortbow.png,bow,14,1750,"Shortbow, Wood",0,0,100,birch wood,data/sprite/weapons/arrow.png,Balance
Bone Crossbow,boneCrossbow.png,bow,14,1900,"Crossbow, Bone",0,10,90,bone fragments,data/sprite/weapons/bolt.png,Balance
Bone Longbow,boneLongbow.png,bow,20,1800,"Longbow, Bone",0,0,100,bone fragments,data/sprite/weapons/arrow.png,Image
Bone Shortbow,boneShortBow.png,bow,20,1750,"Shortbow, Bone",0,0,100,bone fragments,data/sprite/weapons/arrow.png,Balance
Bronze Crossbow,bronzeCrossbow.png,bow,20,1900,"Crossbow, Bronze",0,10,90,bronze nugget,data/sprite/weapons/bolt.png,Image
Elderwood Crossbow,elderwoodCrossbow.png,bow,65,1900,"Crossbow, Wood",0,10,90,elderwood timber,data/sprite/weapons/bolt.png,Balance
Elderwood Longbow,elderwoodLongbow.png,bow,75,1800,"Longbow, Wood",0,0,100,elderwood timber,data/sprite/weapons/arrow.png,Image
Elderwood Shortbow,elderwoodShortBow.png,bow,55,1750,"Shortbow, Wood",0,0,100,elderwood timber,data/sprite/weapons/arrow.png,Balance
Elm Longbow,elmLongbow.png,bow,3,1800,"Longbow, Wood",0,0,100,elm wood,data/sprite/weapons/arrow.png,Balance
Elm Shortbow,elmShortbow.png,bow,3,1750,"Shortbow, Wood",0,0,100,elm wood,data/sprite/weapons/arrow.png,Balance
Obsidian Crossbow,obsidianCrossbow.png,bow,27,1900,"Crossbow, Obsidian",0,10,90,iron slag,data/sprite/weapons/bolt.png,Balance
Ironwood Crossbow,ironwoodCrossbow.png,bow,30,1900,"Crossbow, Wood",0,10,90,ironwood timber,data/sprite/weapons/bolt.png,Balance
Ironwood Longbow,ironwoodLongbow.png,bow,65,1800,"Longbow, Wood",0,0,100,ironwood timber,data/sprite/weapons/arrow.png,Image
Ironwood Shortbow,ironwoodShortBow.png,bow,35,1750,"Shortbow, Wood",0,0,100,ironwood timber,data/sprite/weapons/arrow.png,Balance
Mythril Crossbow,mythrilCrossbow.png,bow,75,1900,"Crossbow, Mythril",0,10,90,mythril nugget,data/sprite/weapons/bolt.png,Image
Orichalcum Crossbow,orichalcumCrossbow.png,bow,90,1900,"Crossbow, Orichalcum",0,10,90,orichalcum shard,data/sprite/weapons/bolt.png,Image
Steel Crossbow,steelCrossbow.png,bow,35,1900,"Crossbow, Steel",0,10,90,steel chunk,data/sprite/weapons/bolt.png,Image
,,,,,,,,,,,
,,,,,,,,,,,
srv.ItemData.Bonus,,,,,,,,,,,
Prefix,Suffix,Min Level,Max Level,Modifier Function,Type,Categories,Script Data,,,,
Improved,,1,100,modifierImproved,Improved,"weapon, armor",,,,,
Perfected,,1,100,modifierPerfected,Perfected,"weapon, armor",,,,,
Heroic,,1,100,modifierHeroic,Heroic,"weapon, armor",,,,,
